tidy&analysis
…
## Rows: 23237 Columns: 11
## ── Column specification ────────────────────────────────────────────────────────
## Delimiter: ","
## chr (3): MONTH, BOROUGH, COMMUNITYDISTRICT
## dbl (8): REFUSETONSCOLLECTED, PAPERTONSCOLLECTED, MGPTONSCOLLECTED, RESORGAN...
## 
## ℹ Use `spec()` to retrieve the full column specification for this data.
## ℹ Specify the column types or set `show_col_types = FALSE` to quiet this message.

dsny_df |> 
  janitor::clean_names() |> 
  separate(month, c("year", "month"), sep = " / ") |> filter(year == "2023") |> 
  select(-communitydistrict, -resorganicstons, -schoolorganictons, -leavesorganictons, -xmastreetons)

## # A tibble: 590 × 7
##    year  month borough   refusetonscollected papertonscollected mgptonscollected
##    <chr> <chr> <chr>                   <dbl>              <dbl>            <dbl>
##  1 2023  01    Brooklyn                2885.               285.             233.
##  2 2023  01    Bronx                   2852.               275.             340.
##  3 2023  01    Bronx                   2444.               293.             338.
##  4 2023  01    Brooklyn                4385.               257.             435 
##  5 2023  01    Manhattan               2554.               249.             231.
##  6 2023  02    Bronx                   2766.               164.             270.
##  7 2023  02    Brooklyn                5121.               569.             382.
##  8 2023  02    Bronx                   3002.               244.             453.
##  9 2023  02    Manhattan               3869.               344.             408.
## 10 2023  03    Brooklyn                3320                410.             430 
## # ℹ 580 more rows
## # ℹ 1 more variable: borough_id <dbl>
…
rodent_inspec_df <- read_csv("data/Rodent Inspection Data - 2023.csv")

## Rows: 17578 Columns: 25
## ── Column specification ────────────────────────────────────────────────────────
## Delimiter: ","
## chr (12): INSPECTION_TYPE, JOB_ID, BLOCK, LOT, HOUSE_NUMBER, STREET_NAME, BO...
## dbl (13): JOB_TICKET_OR_WORK_ORDER_ID, JOB_PROGRESS, BBL, BORO_CODE, ZIP_COD...
## 
## ℹ Use `spec()` to retrieve the full column specification for this data.
## ℹ Specify the column types or set `show_col_types = FALSE` to quiet this message.

rodent_inspec_df |> janitor::clean_names() |> select(-job_id, -job_ticket_or_work_order_id, -job_progress, -bbl, -house_number, -street_name, -block, -lot, -approved_date, -location, -community_board, -council_district, -census_tract, -bin, -nta)

## # A tibble: 17,578 × 10
##    inspection_type boro_code zip_code x_coord y_coord latitude longitude borough
##    <chr>               <dbl>    <dbl>   <dbl>   <dbl>    <dbl>     <dbl> <chr>  
##  1 BAIT                    2    10459 1012637  241592     40.8     -73.9 Bronx  
##  2 Initial                 3    11236 1013319  175397     40.6     -73.9 Brookl…
##  3 Initial                 1    10021  997820  219476     40.8     -74.0 Manhat…
##  4 Initial                 2    10456 1011476  240992     40.8     -73.9 Bronx  
##  5 Initial                 3    11211  999602  200156     40.7     -73.9 Brookl…
##  6 Initial                 1    10028  996186  222843     40.8     -74.0 Manhat…
##  7 BAIT                    3    11216  997073  188002     40.7     -74.0 Brookl…
##  8 Initial                 1    10009  990295  202117     40.7     -74.0 Manhat…
##  9 Compliance              2    10455 1006906  237230     40.8     -73.9 Bronx  
## 10 Initial                 1    10023  990592  222254     40.8     -74.0 Manhat…
## # ℹ 17,568 more rows
## # ℹ 2 more variables: inspection_date <chr>, result <chr>
…
